Assignment 2/vga/BRAM_convolution_working/simulation/modelsim/waveform.vcd
$date
	Sat Sep 28 12:40:49 2024
$end
$version
	ModelSim Version 2020.1
$end
$timescale
	1ps
$end

$scope module vga_face_tb $end
$var parameter 32 ! CLK_T $end
$var reg 1 " clk $end
$var reg 1 # reset $end
$var reg 3 $ filter_mode [2:0] $end
$var reg 30 % data [29:0] $end
$var reg 1 & startofpacket $end
$var reg 1 ' endofpacket $end
$var reg 1 ( valid $end
$var reg 1 ) ready $end
$var reg 12 * in_data [11:0] $end

$scope begin procedure $end
$upscope $end

$scope begin monitor $end
$upscope $end

$scope begin vga_stall $end
$upscope $end

$scope module uut $end
$var parameter 32 + W $end
$var parameter 32 , image_width $end
$var parameter 32 - NumPixels $end
$var parameter 32 . NumColourBits $end
$var wire 1 / clk $end
$var wire 1 0 reset $end
$var wire 1 1 filter_mode [2] $end
$var wire 1 2 filter_mode [1] $end
$var wire 1 3 filter_mode [0] $end
$var wire 1 4 in_data [11] $end
$var wire 1 5 in_data [10] $end
$var wire 1 6 in_data [9] $end
$var wire 1 7 in_data [8] $end
$var wire 1 8 in_data [7] $end
$var wire 1 9 in_data [6] $end
$var wire 1 : in_data [5] $end
$var wire 1 ; in_data [4] $end
$var wire 1 < in_data [3] $end
$var wire 1 = in_data [2] $end
$var wire 1 > in_data [1] $end
$var wire 1 ? in_data [0] $end
$var reg 30 @ data [29:0] $end
$var reg 1 A startofpacket $end
$var reg 1 B endofpacket $end
$var reg 1 C valid $end
$var wire 1 D ready $end
$var reg 1 E x_ready $end
$var reg 19 F pixel_index [18:0] $end
$var reg 19 G pixel_index_next [18:0] $end
$var reg 19 H data_index [18:0] $end
$var reg 19 I data_index_next [18:0] $end
$var reg 12 J stewart_q [11:0] $end
$var reg 1 K read_enable $end
$var reg 12 L current_pixel [11:0] $end
$var reg 12 M out_pixel [11:0] $end
$var reg 1 N y_valid $end
$var reg 4 O channel_0 [3:0] $end
$var reg 4 P channel_1 [3:0] $end
$var reg 4 Q channel_2 [3:0] $end
$var reg 9 R delay [8:0] $end
$var reg 1 S delay_logic $end
$var reg 13 T macc_0 [12:0] $end
$var reg 13 U macc_1 [12:0] $end
$var reg 13 V macc_2 [12:0] $end
$var reg 12 W combined_result [11:0] $end
$var wire 1 X x_valid $end
$var reg 1 Y hand_shake $end
$var reg 1 Z read_valid $end

$scope begin bram_read $end
$upscope $end

$scope begin kernel_setting $end
$upscope $end

$scope begin shift_register_update $end
$upscope $end

$scope begin pipelined_h_multiply $end
$upscope $end

$scope begin MAC $end
$upscope $end

$scope begin output_reg $end
$upscope $end
$upscope $end
$upscope $end

$scope begin std $end
$upscope $end
$enddefinitions $end
#0
$dumpvars
0"
1#
b0 $
bx00xxxxxxxx00xxxxxxxx00 %
0&
0'
x(
0)
b0 *
bx00xxxxxxxx00xxxxxxxx00 @
0A
0B
xC
0E
b0 F
b0 G
b0 H
b0 I
bx J
1K
bx L
bx M
xN
bx O
bx P
bx Q
b0 R
1S
bx T
bx U
bx V
bx W
0Y
1Z
b10100 !
b1100 +
b101000000 ,
b10010110000000000 -
b1100 .
xX
0/
10
0?
0>
0=
0<
0;
0:
09
08
07
06
05
04
03
02
01
0D
$end
#10
1"
1/
b0 J
b0 O
b0 P
b0 Q
b0 M
0C
1)
0(
b0 @
0X
1D
1E
b0 %
b0 T
b0 U
b0 V
b0 L
b0 W
#20
0#
b11111100111 *
0"
1?
1>
1=
1:
19
18
17
16
15
00
0/
b1 G
b1 I
#30
1"
1/
b11111100111 J
b1 R
0)
0D
0K
0E
b0 G
b0 I
b11111100111 L
#40
0"
0/
#50
1"
1/
b10 R
1)
1D
1K
1E
b1 G
b1 I
#60
0"
0/
#70
1"
1/
b111 O
b1110 P
b111 Q
b11 R
#80
0"
0/
#90
1"
1/
b100 R
#100
0"
0/
#110
1"
1/
b101 R
#120
0"
0/
#130
1"
1/
b110 R
#140
0"
0/
#150
1"
1/
b111 R
#160
0"
0/
#170
1"
1/
b1000 R
#180
0"
0/
#190
1"
1/
b1001 R
#200
0"
0/
#210
1"
1/
b1010 R
#220
0"
0/
#230
1"
1/
b1011 R
#240
0"
0/
#250
1"
1/
b1100 R
0)
0D
0K
0E
b0 G
b0 I
#260
0"
0/
#270
1"
1/
b1101 R
#280
0"
0/
#290
1"
1/
b1110 R
1)
1D
1K
1E
b1 G
b1 I
#300
0"
0/
#310
1"
1/
b1111 R
#320
0"
0/
#330
1"
1/
b10000 R
0)
0D
0K
0E
b0 G
b0 I
#340
0"
0/
#350
1"
1/
b10001 R
#360
0"
0/
#370
1"
1/
b10010 R
1)
1D
1K
1E
b1 G
b1 I
#380
0"
0/
#390
1"
1/
b10011 R
#400
0"
0/
#410
1"
1/
b10100 R
#420
0"
0/
#430
1"
1/
b10101 R
#440
0"
0/
#450
1"
1/
b10110 R
#460
0"
0/
#470
1"
1/
b10111 R
#480
0"
0/
#490
1"
1/
b11000 R
0)
0D
0K
0E
b0 G
b0 I
#500
0"
0/
#510
1"
1/
b11001 R
1)
1D
1K
1E
b1 G
b1 I
#520
0"
0/
#530
1"
1/
b11010 R
0)
0D
0K
0E
b0 G
b0 I
#540
0"
0/
#550
1"
1/
b11011 R
#560
0"
0/
#570
1"
1/
b11100 R
1)
1D
1K
1E
b1 G
b1 I
#580
0"
0/
#590
1"
1/
b11101 R
#600
0"
0/
#610
1"
1/
b11110 R
#620
0"
0/
#630
1"
1/
b11111 R
#640
0"
0/
#650
1"
1/
b100000 R
0)
0D
0K
0E
b0 G
b0 I
#660
0"
0/
#670
1"
1/
b100001 R
1)
1D
1K
1E
b1 G
b1 I
#680
0"
0/
#690
1"
1/
b100010 R
#700
0"
0/
#710
1"
1/
b100011 R
#720
0"
0/
#730
1"
1/
b100100 R
0)
0D
0K
0E
b0 G
b0 I
#740
0"
0/
#750
1"
1/
b100101 R
1)
1D
1K
1E
b1 G
b1 I
#760
0"
0/
#770
1"
1/
b100110 R
0)
0D
0K
0E
b0 G
b0 I
#780
0"
0/
#790
1"
1/
b100111 R
1)
1D
1K
1E
b1 G
b1 I
#800
0"
0/
#810
1"
1/
b101000 R
0)
0D
0K
0E
b0 G
b0 I
#820
0"
0/
#830
1"
1/
b101001 R
1)
1D
1K
1E
b1 G
b1 I
#840
0"
0/
#850
1"
1/
b101010 R
0)
0D
0K
0E
b0 G
b0 I
#860
0"
0/
#870
1"
1/
b101011 R
1)
1D
1K
1E
b1 G
b1 I
#880
0"
0/
#890
1"
1/
b101100 R
#900
0"
0/
#910
1"
1/
b101101 R
#920
0"
0/
#930
1"
1/
b101110 R
#940
0"
0/
#950
1"
1/
b101111 R
#960
0"
0/
#970
1"
1/
b110000 R
#980
0"
0/
#990
1"
1/
b110001 R
0)
0D
0K
0E
b0 G
b0 I
#1000
0"
0/
#1010
1"
1/
b110010 R
1)
1D
1K
1E
b1 G
b1 I
#1020
0"
0/
#1030
1"
1/
b110011 R
#1040
0"
0/
#1050
1"
1/
b110100 R
#1060
0"
0/
#1070
1"
1/
b110101 R
0)
0D
0K
0E
b0 G
b0 I
#1080
0"
0/
#1090
1"
1/
b110110 R
1)
1D
1K
1E
b1 G
b1 I
#1100
0"
0/
#1110
1"
1/
b110111 R
#1120
0"
0/
#1130
1"
1/
b111000 R
#1140
0"
0/
#1150
1"
1/
b111001 R
0)
0D
0K
0E
b0 G
b0 I
#1160
0"
0/
#1170
1"
1/
b111010 R
1)
1D
1K
1E
b1 G
b1 I
#1180
0"
0/
#1190
1"
1/
b111011 R
#1200
0"
0/
#1210
1"
1/
b111100 R
0)
0D
0K
0E
b0 G
b0 I
#1220
0"
0/
#1230
1"
1/
b111101 R
1)
1D
1K
1E
b1 G
b1 I
#1240
0"
0/
#1250
1"
1/
b111110 R
#1260
0"
0/
#1270
1"
1/
b111111 R
0)
0D
0K
0E
b0 G
b0 I
#1280
0"
0/
#1290
1"
1/
b1000000 R
1)
1D
1K
1E
b1 G
b1 I
#1300
0"
0/
#1310
1"
1/
b1000001 R
0)
0D
0K
0E
b0 G
b0 I
#1320
0"
0/
#1330
1"
1/
b1000010 R
1)
1D
1K
1E
b1 G
b1 I
#1340
0"
0/
#1350
1"
1/
b1000011 R
#1360
0"
0/
#1370
1"
1/
b1000100 R
#1380
0"
0/
#1390
1"
1/
b1000101 R
#1400
0"
0/
#1410
1"
1/
b1000110 R
#1420
0"
0/
#1430
1"
1/
b1000111 R
0)
0D
0K
0E
b0 G
b0 I
#1440
0"
0/
#1450
1"
1/
b1001000 R
1)
1D
1K
1E
b1 G
b1 I
#1460
0"
0/
#1470
1"
1/
b1001001 R
#1480
0"
0/
#1490
1"
1/
b1001010 R
#1500
0"
0/
#1510
1"
1/
b1001011 R
#1520
0"
0/
#1530
1"
1/
b1001100 R
0)
0D
0K
0E
b0 G
b0 I
#1540
0"
0/
#1550
1"
1/
b1001101 R
1)
1D
1K
1E
b1 G
b1 I
#1560
0"
0/
#1570
1"
1/
b1001110 R
0)
0D
0K
0E
b0 G
b0 I
#1580
0"
0/
#1590
1"
1/
b1001111 R
1)
1D
1K
1E
b1 G
b1 I
#1600
0"
0/
#1610
1"
1/
b1010000 R
#1620
0"
0/
#1630
1"
1/
b1010001 R
#1640
0"
0/
#1650
1"
1/
b1010010 R
#1660
0"
0/
#1670
1"
1/
b1010011 R
#1680
0"
0/
#1690
1"
1/
b1010100 R
#1700
0"
0/
#1710
1"
1/
b1010101 R
#1720
0"
0/
#1730
1"
1/
b1010110 R
0)
0D
0K
0E
b0 G
b0 I
#1740
0"
0/
#1750
1"
1/
b1010111 R
#1760
0"
0/
#1770
1"
1/
b1011000 R
1)
1D
1K
1E
b1 G
b1 I
#1780
0"
0/
#1790
1"
1/
b1011001 R
#1800
0"
0/
#1810
1"
1/
b1011010 R
0)
0D
0K
0E
b0 G
b0 I
#1820
0"
0/
#1830
1"
1/
b1011011 R
1)
1D
1K
1E
b1 G
b1 I
#1840
0"
0/
#1850
1"
1/
b1011100 R
#1860
0"
0/
#1870
1"
1/
b1011101 R
#1880
0"
0/
#1890
1"
1/
b1011110 R
0)
0D
0K
0E
b0 G
b0 I
#1900
0"
0/
#1910
1"
1/
b1011111 R
1)
1D
1K
1E
b1 G
b1 I
#1920
0"
0/
#1930
1"
1/
b1100000 R
0)
0D
0K
0E
b0 G
b0 I
#1940
0"
0/
#1950
1"
1/
b1100001 R
#1960
0"
0/
#1970
1"
1/
b1100010 R
1)
1D
1K
1E
b1 G
b1 I
#1980
0"
0/
#1990
1"
1/
b1100011 R
#2000
0"
0/
#2010
1"
1/
b1100100 R
0)
0D
0K
0E
b0 G
b0 I
#2020
0"
0/
#2030
1"
1/
b1100101 R
1)
1D
1K
1E
b1 G
b1 I
#2040
0"
0/
#2050
1"
1/
b1100110 R
#2060
0"
0/
#2070
1"
1/
b1100111 R
#2080
0"
0/
#2090
1"
1/
b1101000 R
#2100
0"
0/
#2110
1"
1/
b1101001 R
0)
0D
0K
0E
b0 G
b0 I
#2120
0"
0/
#2130
1"
1/
b1101010 R
1)
1D
1K
1E
b1 G
b1 I
#2140
0"
0/
#2150
1"
1/
b1101011 R
#2160
0"
0/
#2170
1"
1/
b1101100 R
0)
0D
0K
0E
b0 G
b0 I
#2180
0"
0/
#2190
1"
1/
b1101101 R
1)
1D
1K
1E
b1 G
b1 I
#2200
0"
0/
#2210
1"
1/
b1101110 R
#2220
0"
0/
#2230
1"
1/
b1101111 R
#2240
0"
0/
#2250
1"
1/
b1110000 R
#2260
0"
0/
#2270
1"
1/
b1110001 R
#2280
0"
0/
#2290
1"
1/
b1110010 R
#2300
0"
0/
#2310
1"
1/
b1110011 R
0)
0D
0K
0E
b0 G
b0 I
#2320
0"
0/
#2330
1"
1/
b1110100 R
1)
1D
1K
1E
b1 G
b1 I
#2340
0"
0/
#2350
1"
1/
b1110101 R
0)
0D
0K
0E
b0 G
b0 I
#2360
0"
0/
#2370
1"
1/
b1110110 R
1)
1D
1K
1E
b1 G
b1 I
#2380
0"
0/
#2390
1"
1/
b1110111 R
0)
0D
0K
0E
b0 G
b0 I
#2400
0"
0/
#2410
1"
1/
b1111000 R
1)
1D
1K
1E
b1 G
b1 I
#2420
0"
0/
#2430
1"
1/
b1111001 R
#2440
0"
0/
#2450
1"
1/
b1111010 R
0)
0D
0K
0E
b0 G
b0 I
#2460
0"
0/
#2470
1"
1/
b1111011 R
#2480
0"
0/
#2490
1"
1/
b1111100 R
1)
1D
1K
1E
b1 G
b1 I
#2500
0"
0/
#2510
1"
1/
b1111101 R
#2520
0"
0/
#2530
1"
1/
b1111110 R
#2540
0"
0/
#2550
1"
1/
b1111111 R
#2560
0"
0/
#2570
1"
1/
b10000000 R
#2580
0"
0/
#2590
1"
1/
b10000001 R
#2600
0"
0/
#2610
1"
1/
b10000010 R
0)
0D
0K
0E
b0 G
b0 I
#2620
0"
0/
#2630
1"
1/
b10000011 R
1)
1D
1K
1E
b1 G
b1 I
#2640
0"
0/
#2650
1"
1/
b10000100 R
0)
0D
0K
0E
b0 G
b0 I
#2660
0"
0/
#2670
1"
1/
b10000101 R
1)
1D
1K
1E
b1 G
b1 I
#2680
0"
0/
#2690
1"
1/
b10000110 R
#2700
0"
0/
#2710
1"
1/
b10000111 R
0)
0D
0K
0E
b0 G
b0 I
#2720
0"
0/
#2730
1"
1/
b10001000 R
1)
1D
1K
1E
b1 G
b1 I
#2740
0"
0/
#2750
1"
1/
b10001001 R
#2760
0"
0/
#2770
1"
1/
b10001010 R
#2780
0"
0/
#2790
1"
1/
b10001011 R
#2800
0"
0/
#2810
1"
1/
b10001100 R
#2820
0"
0/
#2830
1"
1/
b10001101 R
#2840
0"
0/
#2850
1"
1/
b10001110 R
#2860
0"
0/
#2870
1"
1/
b10001111 R
0)
0D
0K
0E
b0 G
b0 I
#2880
0"
0/
#2890
1"
1/
b10010000 R
1)
1D
1K
1E
b1 G
b1 I
#2900
0"
0/
#2910
1"
1/
b10010001 R
#2920
0"
0/
#2930
1"
1/
b10010010 R
#2940
0"
0/
#2950
1"
1/
b10010011 R
0)
0D
0K
0E
b0 G
b0 I
#2960
0"
0/
#2970
1"
1/
b10010100 R
1)
1D
1K
1E
b1 G
b1 I
#2980
0"
0/
#2990
1"
1/
b10010101 R
#3000
0"
0/
#3010
1"
1/
b10010110 R
0)
0D
0K
0E
b0 G
b0 I
#3020
0"
0/
#3030
1"
1/
b10010111 R
1)
1D
1K
1E
b1 G
b1 I
#3040
0"
0/
#3050
1"
1/
b10011000 R
#3060
0"
0/
#3070
1"
1/
b10011001 R
#3080
0"
0/
#3090
1"
1/
b10011010 R
#3100
0"
0/
#3110
1"
1/
b10011011 R
#3120
0"
0/
#3130
1"
1/
b10011100 R
0)
0D
0K
0E
b0 G
b0 I
#3140
0"
0/
#3150
1"
1/
b10011101 R
1)
1D
1K
1E
b1 G
b1 I
#3160
0"
0/
#3170
1"
1/
b10011110 R
0)
0D
0K
0E
b0 G
b0 I
#3180
0"
0/
#3190
1"
1/
b10011111 R
1)
1D
1K
1E
b1 G
b1 I
#3200
0"
0/
#3210
1"
1/
b10100000 R
#3220
0"
0/
#3230
1"
1/
b10100001 R
#3240
0"
0/
#3250
1"
1/
b10100010 R
0)
0D
0K
0E
b0 G
b0 I
#3260
0"
0/
#3270
1"
1/
b10100011 R
1)
1D
1K
1E
b1 G
b1 I
#3280
0"
0/
#3290
1"
1/
b10100100 R
#3300
0"
0/
#3310
1"
1/
b10100101 R
#3320
0"
0/
#3330
1"
1/
b10100110 R
#3340
0"
0/
#3350
1"
1/
b10100111 R
#3360
0"
0/
#3370
1"
1/
b10101000 R
#3380
0"
0/
#3390
1"
1/
b10101001 R
#3400
0"
0/
#3410
1"
1/
b10101010 R
0)
0D
0K
0E
b0 G
b0 I
#3420
0"
0/
#3430
1"
1/
b10101011 R
1)
1D
1K
1E
b1 G
b1 I
#3440
0"
0/
#3450
1"
1/
b10101100 R
0)
0D
0K
0E
b0 G
b0 I
#3460
0"
0/
#3470
1"
1/
b10101101 R
1)
1D
1K
1E
b1 G
b1 I
#3480
0"
0/
#3490
1"
1/
b10101110 R
0)
0D
0K
0E
b0 G
b0 I
#3500
0"
0/
#3510
1"
1/
b10101111 R
#3520
0"
0/
#3530
1"
1/
b10110000 R
1)
1D
1K
1E
b1 G
b1 I
#3540
0"
0/
#3550
1"
1/
b10110001 R
#3560
0"
0/
#3570
1"
1/
b10110010 R
#3580
0"
0/
#3590
1"
1/
b10110011 R
0)
0D
0K
0E
b0 G
b0 I
#3600
0"
0/
#3610
1"
1/
b10110100 R
#3620
0"
0/
#3630
1"
1/
b10110101 R
1)
1D
1K
1E
b1 G
b1 I
#3640
0"
0/
#3650
1"
1/
b10110110 R
#3660
0"
0/
#3670
1"
1/
b10110111 R
#3680
0"
0/
#3690
1"
1/
b10111000 R
0)
0D
0K
0E
b0 G
b0 I
#3700
0"
0/
#3710
1"
1/
b10111001 R
1)
1D
1K
1E
b1 G
b1 I
#3720
0"
0/
#3730
1"
1/
b10111010 R
0)
0D
0K
0E
b0 G
b0 I
#3740
0"
0/
#3750
1"
1/
b10111011 R
1)
1D
1K
1E
b1 G
b1 I
#3760
0"
0/
#3770
1"
1/
b10111100 R
#3780
0"
0/
#3790
1"
1/
b10111101 R
#3800
0"
0/
#3810
1"
1/
b10111110 R
#3820
0"
0/
#3830
1"
1/
b10111111 R
#3840
0"
0/
#3850
1"
1/
b11000000 R
0)
0D
0K
0E
b0 G
b0 I
#3860
0"
0/
#3870
1"
1/
b11000001 R
1)
1D
1K
1E
b1 G
b1 I
#3880
0"
0/
#3890
1"
1/
b11000010 R
0)
0D
0K
0E
b0 G
b0 I
#3900
0"
0/
#3910
1"
1/
b11000011 R
#3920
0"
0/
#3930
1"
1/
b11000100 R
#3940
0"
0/
#3950
1"
1/
b11000101 R
#3960
0"
0/
#3970
1"
1/
b11000110 R
1)
1D
1K
1E
b1 G
b1 I
#3980
0"
0/
#3990
1"
1/
b11000111 R
0)
0D
0K
0E
b0 G
b0 I
#4000
0"
0/
#4010
1"
1/
b11001000 R
1)
1D
1K
1E
b1 G
b1 I
#4020
0"
0/
#4030
1"
1/
b11001001 R
#4040
0"
0/
#4050
1"
1/
b11001010 R
0)
0D
0K
0E
b0 G
b0 I
#4060
0"
0/
#4070
1"
1/
b11001011 R
1)
1D
1K
1E
b1 G
b1 I
#4080
0"
0/
#4090
1"
1/
b11001100 R
#4100
0"
0/
#4110
1"
1/
b11001101 R
#4120
0"
0/
#4130
1"
1/
b11001110 R
0)
0D
0K
0E
b0 G
b0 I
#4140
0"
0/
#4150
1"
1/
b11001111 R
#4160
0"
0/
#4170
1"
1/
b11010000 R
1)
1D
1K
1E
b1 G
b1 I
#4180
0"
0/
#4190
1"
1/
b11010001 R
#4200
0"
0/
#4210
1"
1/
b11010010 R
#4220
0"
0/
#4230
1"
1/
b11010011 R
#4240
0"
0/
#4250
1"
1/
b11010100 R
#4260
0"
0/
#4270
1"
1/
b11010101 R
#4280
0"
0/
#4290
1"
1/
b11010110 R
#4300
0"
0/
#4310
1"
1/
b11010111 R
0)
0D
0K
0E
b0 G
b0 I
#4320
0"
0/
#4330
1"
1/
b11011000 R
1)
1D
1K
1E
b1 G
b1 I
#4340
0"
0/
#4350
1"
1/
b11011001 R
#4360
0"
0/
#4370
1"
1/
b11011010 R
#4380
0"
0/
#4390
1"
1/
b11011011 R
#4400
0"
0/
#4410
1"
1/
b11011100 R
#4420
0"
0/
#4430
1"
1/
b11011101 R
0)
0D
0K
0E
b0 G
b0 I
#4440
0"
0/
#4450
1"
1/
b11011110 R
1)
1D
1K
1E
b1 G
b1 I
#4460
0"
0/
#4470
1"
1/
b11011111 R
#4480
0"
0/
#4490
1"
1/
b11100000 R
#4500
0"
0/
#4510
1"
1/
b11100001 R
#4520
0"
0/
#4530
1"
1/
b11100010 R
#4540
0"
0/
#4550
1"
1/
b11100011 R
0)
0D
0K
0E
b0 G
b0 I
#4560
0"
0/
#4570
1"
1/
b11100100 R
#4580
0"
0/
#4590
1"
1/
b11100101 R
1)
1D
1K
1E
b1 G
b1 I
#4600
0"
0/
#4610
1"
1/
b11100110 R
0)
0D
0K
0E
b0 G
b0 I
#4620
0"
0/
#4630
1"
1/
b11100111 R
1)
1D
1K
1E
b1 G
b1 I
#4640
0"
0/
#4650
1"
1/
b11101000 R
#4660
0"
0/
#4670
1"
1/
b11101001 R
#4680
0"
0/
#4690
1"
1/
b11101010 R
#4700
0"
0/
#4710
1"
1/
b11101011 R
#4720
0"
0/
#4730
1"
1/
b11101100 R
0)
0D
0K
0E
b0 G
b0 I
#4740
0"
0/
#4750
1"
1/
b11101101 R
#4760
0"
0/
#4770
1"
1/
b11101110 R
1)
1D
1K
1E
b1 G
b1 I
#4780
0"
0/
#4790
1"
1/
b11101111 R
#4800
0"
0/
#4810
1"
1/
b11110000 R
#4820
0"
0/
#4830
1"
1/
b11110001 R
#4840
0"
0/
#4850
1"
1/
b11110010 R
#4860
0"
0/
#4870
1"
1/
b11110011 R
0)
0D
0K
0E
b0 G
b0 I
#4880
0"
0/
#4890
1"
1/
b11110100 R
1)
1D
1K
1E
b1 G
b1 I
#4900
0"
0/
#4910
1"
1/
b11110101 R
0)
0D
0K
0E
b0 G
b0 I
#4920
0"
0/
#4930
1"
1/
b11110110 R
1)
1D
1K
1E
b1 G
b1 I
#4940
0"
0/
#4950
1"
1/
b11110111 R
#4960
0"
0/
#4970
1"
1/
b11111000 R
#4980
0"
0/
#4990
1"
1/
b11111001 R
0)
0D
0K
0E
b0 G
b0 I
#5000
0"
0/
#5010
1"
1/
b11111010 R
1)
1D
1K
1E
b1 G
b1 I
#5020
0"
0/
#5030
1"
1/
b11111011 R
#5040
0"
0/
#5050
1"
1/
b11111100 R
#5060
0"
0/
#5070
1"
1/
b11111101 R
0)
0D
0K
0E
b0 G
b0 I
#5080
0"
0/
#5090
1"
1/
b11111110 R
#5100
0"
0/
#5110
1"
1/
b11111111 R
1)
1D
1K
1E
b1 G
b1 I
#5120
0"
0/
#5130
1"
1/
b100000000 R
#5140
0"
0/
#5150
1"
1/
b100000001 R
0)
0D
0K
0E
b0 G
b0 I
#5160
0"
0/
#5170
1"
1/
b100000010 R
#5180
0"
0/
#5190
1"
1/
b100000011 R
1)
1D
1K
1E
b1 G
b1 I
#5200
0"
0/
#5210
1"
1/
b100000100 R
0)
0D
0K
0E
b0 G
b0 I
#5220
0"
0/
#5230
1"
1/
b100000101 R
1)
1D
1K
1E
b1 G
b1 I
#5240
0"
0/
#5250
1"
1/
b100000110 R
#5260
0"
0/
#5270
1"
1/
b100000111 R
#5280
0"
0/
#5290
1"
1/
b100001000 R
#5300
0"
0/
#5310
1"
1/
b100001001 R
0)
0D
0K
0E
b0 G
b0 I
#5320
0"
0/
#5330
1"
1/
b100001010 R
1)
1D
1K
1E
b1 G
b1 I
#5340
0"
0/
#5350
1"
1/
b100001011 R
0)
0D
0K
0E
b0 G
b0 I
#5360
0"
0/
#5370
1"
1/
b100001100 R
#5380
0"
0/
#5390
1"
1/
b100001101 R
1)
1D
1K
1E
b1 G
b1 I
#5400
0"
0/
#5410
1"
1/
b100001110 R
#5420
0"
0/
#5430
1"
1/
b100001111 R
0)
0D
0K
0E
b0 G
b0 I
#5440
0"
0/
#5450
1"
1/
b100010000 R
1)
1D
1K
1E
b1 G
b1 I
#5460
0"
0/
#5470
1"
1/
b100010001 R
#5480
0"
0/
#5490
1"
1/
b100010010 R
#5500
0"
0/
#5510
1"
1/
b100010011 R
0)
0D
0K
0E
b0 G
b0 I
#5520
0"
0/
#5530
1"
1/
b100010100 R
1)
1D
1K
1E
b1 G
b1 I
#5540
0"
0/
#5550
1"
1/
b100010101 R
#5560
0"
0/
#5570
1"
1/
b100010110 R
#5580
0"
0/
#5590
1"
1/
b100010111 R
#5600
0"
0/
#5610
1"
1/
b100011000 R
#5620
0"
0/
#5630
1"
1/
b100011001 R
0)
0D
0K
0E
b0 G
b0 I
#5640
0"
0/
#5650
1"
1/
b100011010 R
1)
1D
1K
1E
b1 G
b1 I
#5660
0"
0/
#5670
1"
1/
b100011011 R
0)
0D
0K
0E
b0 G
b0 I
#5680
0"
0/
#5690
1"
1/
b100011100 R
1)
1D
1K
1E
b1 G
b1 I
#5700
0"
0/
#5710
1"
1/
b100011101 R
0)
0D
0K
0E
b0 G
b0 I
#5720
0"
0/
#5730
1"
1/
b100011110 R
1)
1D
1K
1E
b1 G
b1 I
#5740
0"
0/
#5750
1"
1/
b100011111 R
#5760
0"
0/
#5770
1"
1/
b100100000 R
#5780
0"
0/
#5790
1"
1/
b100100001 R
#5800
0"
0/
#5810
1"
1/
b100100010 R
#5820
0"
0/
#5830
1"
1/
b100100011 R
#5840
0"
0/
#5850
1"
1/
b100100100 R
0)
0D
0K
0E
b0 G
b0 I
#5860
0"
0/
#5870
1"
1/
b100100101 R
1)
1D
1K
1E
b1 G
b1 I
#5880
0"
0/
#5890
1"
1/
b100100110 R
#5900
0"
0/
#5910
1"
1/
b100100111 R
#5920
0"
0/
#5930
1"
1/
b100101000 R
#5940
0"
0/
#5950
1"
1/
b100101001 R
#5960
0"
0/
#5970
1"
1/
b100101010 R
#5980
0"
0/
#5990
1"
1/
b100101011 R
#6000
0"
0/
#6010
1"
1/
b100101100 R
0)
0D
0K
0E
b0 G
b0 I
#6020
0"
0/
#6030
1"
1/
b100101101 R
1)
1D
1K
1E
b1 G
b1 I
#6040
0"
0/
#6050
1"
1/
b100101110 R
#6060
0"
0/
#6070
1"
1/
b100101111 R
#6080
0"
0/
#6090
1"
1/
b100110000 R
#6100
0"
0/
#6110
1"
1/
b100110001 R
#6120
0"
0/
#6130
1"
1/
b100110010 R
#6140
0"
0/
#6150
1"
1/
b100110011 R
#6160
0"
0/
#6170
1"
1/
b100110100 R
#6180
0"
0/
#6190
1"
1/
b100110101 R
#6200
0"
0/
#6210
1"
1/
b100110110 R
#6220
0"
0/
#6230
1"
1/
b100110111 R
#6240
0"
0/
#6250
1"
1/
b100111000 R
#6260
0"
0/
#6270
1"
1/
b100111001 R
#6280
0"
0/
#6290
1"
1/
b100111010 R
#6300
0"
0/
#6310
1"
1/
b100111011 R
#6320
0"
0/
#6330
1"
1/
b100111100 R
0)
0D
0K
0E
b0 G
b0 I
#6340
0"
0/
#6350
1"
1/
b100111101 R
1)
1D
1K
1E
b1 G
b1 I
#6360
0"
0/
#6370
1"
1/
b100111110 R
#6380
0"
0/
#6390
1"
1/
b100111111 R
#6400
0"
0/
#6410
1"
1/
b101000000 R
0)
0D
0K
0E
b0 G
b0 I
#6420
0"
0/
#6430
1"
1/
b101000001 R
1)
1D
1K
1E
b1 G
b1 I
#6440
0"
0/
#6450
1"
1/
b101000010 R
#6460
0"
0/
#6470
1"
1/
b101000011 R
0)
0D
0K
0E
b0 G
b0 I
#6480
0"
0/
#6490
1"
1/
b101000100 R
#6500
0"
0/
#6510
1"
1/
b101000101 R
1)
1D
1K
1E
b1 G
b1 I
#6520
0"
0/
#6530
1"
1/
b101000110 R
0S
0Z
1A
1&
0K
b0 G
b0 I
#6540
0"
0/
#6550
1"
1/
1C
1(
1Z
1Y
1X
1K
b1 G
b1 I
#6560
0"
0/
#6570
1"
1/
b1 F
b1 H
0A
0&
b111 T
b111 U
b111 V
b10 G
b10 I
b11101110111 W
#6580
0"
0/
#6590
1"
1/
b10 F
b11101110111 M
b10 H
b11101110001110111000111011100 @
b11101110001110111000111011100 %
b11 G
b11 I
#6600
0"
0/
#6610
1"
1/
b11 F
b11 H
b100 G
b100 I
#6620
0"
0/
#6630
1"
1/
b100 F
b100 H
0)
0D
0Y
0K
0E
#6640
0"
0/
#6650
1"
1/
1)
1D
1Y
1K
1E
b101 G
b101 I
#6660
0"
0/
#6670
1"
1/
b101 F
b101 H
0)
0D
0Y
0K
0E
#6680
0"
0/
#6690
1"
1/
#6700
0"
0/
#6710
1"
1/
1)
1D
1Y
1K
1E
b110 G
b110 I
#6720
0"
0/
#6730
1"
1/
b110 F
b110 H
b111 G
b111 I
#6740
0"
0/
#6750
1"
1/
b111 F
b111 H
b1000 G
b1000 I
#6760
0"
0/
#6770
1"
1/
b1000 F
b1000 H
b1001 G
b1001 I
#6780
0"
0/
#6790
1"
1/
b1001 F
b1001 H
0)
0D
0Y
0K
0E
#6800
0"
0/
#6810
1"
1/
1)
1D
1Y
1K
1E
b1010 G
b1010 I
#6820
0"
0/
#6830
1"
1/
b1010 F
b1010 H
b1011 G
b1011 I
#6840
0"
0/
#6850
1"
1/
b1011 F
b1011 H
b1100 G
b1100 I
#6860
0"
0/
#6870
1"
1/
b1100 F
b1100 H
0)
0D
0Y
0K
0E
#6880
0"
0/
#6890
1"
1/
1)
1D
1Y
1K
1E
b1101 G
b1101 I
#6900
0"
0/
#6910
1"
1/
b1101 F
b1101 H
b1110 G
b1110 I
#6920
0"
0/
#6930
1"
1/
b1110 F
b1110 H
b1111 G
b1111 I
#6940
0"
0/
#6950
1"
1/
b1111 F
b1111 H
b10000 G
b10000 I
#6960
0"
0/
#6970
1"
1/
b10000 F
b10000 H
b10001 G
b10001 I
#6980
0"
0/
#6990
1"
1/
b10001 F
b10001 H
b10010 G
b10010 I
#7000
0"
0/
#7010
1"
1/
b10010 F
b10010 H
b10011 G
b10011 I
#7020
b101001111100 *
0"
0?
0>
1<
1;
08
07
05
14
0/
#7030
1"
1/
b101001111100 J
b10011 F
b10011 H
0)
0D
0Y
0K
0E
b101001111100 L
#7040
0"
0/
#7050
1"
1/
1)
1D
1Y
1K
1E
b10100 G
b10100 I
#7060
0"
0/
#7070
1"
1/
b10100 F
b1010 O
b111 P
b1100 Q
b10100 H
b10101 G
b10101 I
#7080
0"
0/
